Analiza danych Spotify
…
## [1] 0.9829088

print(quantile(dane$duration_min, probs = c(0.25, 0.5, 0.75)))

##      25%      50%      75% 
## 2.939883 3.516667 4.073367

Przecietny czas jednego utworu to 3 i pół minuty. Dokładnie 3:35
minut.

7. Popularność

dane[order(-dane$track_popularity), c("track_name", "playlist_genre", "track_popularity", "track_artist")]  

## # A tibble: 1,419 × 4
##    track_name                    playlist_genre track_popularity track_artist   
##    <chr>                         <chr>                     <dbl> <chr>          
##  1 Die With A Smile              pop                         100 Lady Gaga, Bru…
##  2 APT.                          pop                          98 ROSÉ, Bruno Ma…
##  3 BIRDS OF A FEATHER            pop                          97 Billie Eilish  
##  4 Good Luck, Babe!              pop                          94 Chappell Roan  
##  5 That’s So True                pop                          93 Gracie Abrams  
##  6 WILDFLOWER                    pop                          93 Billie Eilish  
##  7 Tu Boda                       pop                          93 Oscar Maydon, …
##  8 Si Antes Te Hubiera Conocido  pop                          93 KAROL G        
##  9 Timeless (with Playboi Carti) pop                          92 The Weeknd, Pl…
## 10 Who                           pop                          92 Jimin          
## # ℹ 1,409 more rows
…
2. Gatunki, a rodzaje gamy (dur/mol)

Sprawdzimy, czy niektóre gatunki częściej są pisane w tonacji
durowej, bądź molowej. Zbadamy więc charakter gatunków

gatunki_durmol <- dane %>%
  group_by(playlist_genre)%>%
  count(mode, sort = TRUE)
print(gatunki_durmol)

## # A tibble: 53 × 3
## # Groups:   playlist_genre [28]
##    playlist_genre mode      n
##    <chr>          <fct> <int>
##  1 pop            dur     193
##  2 rock           dur     148
##  3 hip-hop        dur     104
##  4 hip-hop        mol      97
##  5 pop            mol      95
##  6 latin          mol      89
##  7 electronic     mol      78
##  8 latin          dur      73
##  9 rock           mol      57
## 10 electronic     dur      52
## # ℹ 43 more rows
…
